{
    "usuarios": {
        "471396374": {
            "ID": "471396374",
            "email": "rafa@gmail.com",
            "nome": "Rafael"
        },
        "511750344": {
            "ID": "511750344",
            "email": "re@re.com",
            "nome": "re"
        }
    }
}